[gd_scene load_steps=5 format=2]

[ext_resource path="res://images/checklist_icon.png" type="Texture" id=1]
[ext_resource path="res://fonts/UbuntuMono-Regular.ttf" type="DynamicFontData" id=2]

[sub_resource type="StyleBoxFlat" id=1]
bg_color = Color( 0.337255, 0.509804, 0.521569, 0.305882 )
corner_radius_top_left = 1
corner_radius_top_right = 1
corner_radius_bottom_right = 1
corner_radius_bottom_left = 1
corner_detail = 1

[sub_resource type="DynamicFont" id=2]
use_mipmaps = true
extra_spacing_space = 1
font_data = ExtResource( 2 )

[node name="PointLabel" type="Control"]
editor/display_folded = true
margin_top = 70.0
margin_right = 232.0
margin_bottom = 98.0
rect_min_size = Vector2( 232, 28 )

[node name="TextureRect" type="TextureRect" parent="."]
margin_left = 4.0
margin_right = 28.0
margin_bottom = 24.0
rect_min_size = Vector2( 24, 24 )
texture = ExtResource( 1 )

[node name="Label" type="Label" parent="."]
anchor_right = 1.0
anchor_bottom = 1.0
margin_left = 32.0
margin_right = -4.0
margin_bottom = -4.0
rect_min_size = Vector2( 0, 24 )
custom_styles/normal = SubResource( 1 )
custom_fonts/font = SubResource( 2 )
text = "0 / 6"
align = 1
valign = 1

